…
The function `problems_df()` returns a `Dataframe` of all the bundle adjustment problems.

There are 74 different models organized in the `Dataframe` with the following elements:

- the name of the model;
- the group of the model;
- the size of the jacobian matrix (`nequ`, `nvar`);
- the number of non-zeros elements in the jacobian matrix (`nnzj`).

```julia
df = problems_df()
```

```plaintext
74×5 DataFrame
 Row │ name                     group      nequ      nvar     nnzj
     │ String                   String     Int64     Int64    Int64
─────┼──────────────────────────────────────────────────────────────────
   1 │ problem-16-22106-pre     dubrovnik    167436    66462    2009232
   2 │ problem-88-64298-pre     dubrovnik    767874   193686    9214488
   3 │ problem-135-90642-pre    dubrovnik   1106672   273141   13280064
   4 │ problem-142-93602-pre    dubrovnik   1131216   282084   13574592
   5 │ problem-150-95821-pre    dubrovnik   1136238   288813   13634856
   6 │ problem-161-103832-pre   dubrovnik   1184038   312945   14208456
   7 │ problem-173-111908-pre   dubrovnik   1269140   337281   15229680
   8 │ problem-182-116770-pre   dubrovnik   1337410   351948   16048920
  ⋮  │            ⋮                 ⋮         ⋮         ⋮         ⋮
  68 │ problem-1158-802917-pre  venice      8261006  2419173   99132072
  69 │ problem-1184-816583-pre  venice      8358094  2460405  100297128
  70 │ problem-1238-843534-pre  venice      8581006  2541744  102972072
  71 │ problem-1288-866452-pre  venice      8766012  2610948  105192144
  72 │ problem-1350-894716-pre  venice      9034252  2696298  108411024
  73 │ problem-1408-912229-pre  venice      9269060  2749359  111228720
  74 │ problem-1778-993923-pre  venice     10003892  2997771  120046704
                                                         59 rows omitted
```
…
